<svg width="33" height="33" viewBox="0 0 33 33" fill="none" xmlns="http://www.w3.org/2000/svg">
<path fill-rule="evenodd" clip-rule="evenodd" d="M16.5 0C7.3875 0 0 7.3875 0 16.5C0 25.6125 7.3875 33 16.5 33C25.6125 33 33 25.6125 33 16.5C33 7.3875 25.6125 0 16.5 0ZM23.652 13.71C23.7837 13.5595 23.884 13.3841 23.9469 13.1943C24.0098 13.0044 24.0341 12.8039 24.0184 12.6045C24.0027 12.4051 23.9473 12.2108 23.8554 12.0332C23.7635 11.8555 23.637 11.6981 23.4833 11.57C23.3297 11.442 23.152 11.3459 22.9606 11.2876C22.7693 11.2292 22.5683 11.2097 22.3693 11.2302C22.1704 11.2507 21.9775 11.3108 21.8021 11.4069C21.6267 11.5031 21.4723 11.6333 21.348 11.79L14.898 19.5285L11.5605 16.1895C11.2776 15.9163 10.8987 15.7651 10.5054 15.7685C10.1121 15.7719 9.73588 15.9297 9.45777 16.2078C9.17966 16.4859 9.02191 16.8621 9.01849 17.2554C9.01507 17.6487 9.16626 18.0276 9.4395 18.3105L13.9395 22.8105C14.0869 22.9578 14.2633 23.0728 14.4576 23.1481C14.6519 23.2234 14.8597 23.2574 15.0679 23.248C15.2761 23.2385 15.48 23.1858 15.6666 23.0932C15.8533 23.0005 16.0186 22.8701 16.152 22.71L23.652 13.71Z" fill="#2DBC16"/>
</svg>
