<svg width="58" height="58" viewBox="0 0 58 58" fill="none" xmlns="http://www.w3.org/2000/svg">
<path d="M38.3598 58H19.6402C8.79718 58 0 49.2028 0 38.3598V19.6402C0 8.79718 8.79718 0 19.6402 0H38.3598C49.2028 0 58 8.79718 58 19.6402V38.3598C57.9744 49.2284 49.2028 58 38.3598 58Z" fill="#0D5DA7"/>
<path d="M16.8272 44.9066C11.3034 44.9066 6.77692 40.4057 6.77692 34.8563C6.77692 29.3325 11.2778 24.806 16.8272 24.806C22.351 24.806 26.8774 29.3069 26.8774 34.8563C26.8774 40.4057 22.3766 44.9066 16.8272 44.9066ZM16.8272 28.2328C13.1702 28.2328 10.2037 31.1993 10.2037 34.8563C10.2037 38.5133 13.1702 41.4798 16.8272 41.4798C20.4841 41.4798 23.4506 38.5133 23.4506 34.8563C23.4762 31.1993 20.4841 28.2328 16.8272 28.2328Z" fill="white"/>
<path d="M41.1474 44.7788C35.6236 44.7788 31.0971 40.2779 31.0971 34.7285C31.0971 29.2047 35.598 24.6782 41.1474 24.6782C46.6712 24.6782 51.1976 29.1791 51.1976 34.7285C51.1976 40.2779 46.6968 44.7788 41.1474 44.7788ZM41.1474 28.105C37.4904 28.105 34.5239 31.0715 34.5239 34.7285C34.5239 38.3855 37.4904 41.3519 41.1474 41.3519C44.8043 41.3519 47.7708 38.3855 47.7708 34.7285C47.7964 31.0971 44.8043 28.105 41.1474 28.105Z" fill="white"/>
<path d="M39.7406 18.2337L30.1251 27.8493C29.5369 28.4374 28.6163 28.4374 28.0281 27.8493L18.4126 18.2337C17.8244 17.6456 17.8244 16.7249 18.4126 16.1367L28.0281 6.52122C28.6163 5.93303 29.5369 5.93303 30.1251 6.52122L39.7406 16.1367C40.3288 16.7249 40.3288 17.6711 39.7406 18.2337Z" fill="#BACCD6"/>
<path d="M33.8845 47.5916L29.8695 51.6066C29.4347 52.0414 28.7442 52.0414 28.3351 51.6066L24.3201 47.5916C23.8853 47.1569 23.8853 46.4664 24.3201 46.0572L28.3351 42.0422C28.7698 41.6075 29.4603 41.6075 29.8695 42.0422L33.8845 46.0572C34.2936 46.492 34.2936 47.1825 33.8845 47.5916Z" fill="#F1B809"/>
<path d="M16.8271 38.4621C18.8751 38.4621 20.5352 36.8019 20.5352 34.754C20.5352 32.7061 18.8751 31.0459 16.8271 31.0459C14.7792 31.0459 13.119 32.7061 13.119 34.754C13.119 36.8019 14.7792 38.4621 16.8271 38.4621Z" fill="#BACCD6"/>
<path d="M41.1473 38.5644C43.1952 38.5644 44.8554 36.9042 44.8554 34.8563C44.8554 32.8084 43.1952 31.1482 41.1473 31.1482C39.0993 31.1482 37.4391 32.8084 37.4391 34.8563C37.4391 36.9042 39.0993 38.5644 41.1473 38.5644Z" fill="#BACCD6"/>
</svg>
