<svg width="199" height="60" viewBox="0 0 199 60" fill="none" xmlns="http://www.w3.org/2000/svg">
<path d="M6.87 18.95H14.97V23H1.8V1.145H6.87V18.95ZM31.4266 1.145V5.045H22.4566V10.145H29.3266V13.895H22.4566V19.1H31.4266V23H17.3566V1.145H31.4266ZM54.6595 23H50.7295C50.2895 23 49.9245 22.9 49.6345 22.7C49.3545 22.49 49.1595 22.225 49.0495 21.905L47.7595 18.095H39.4495L38.1595 21.905C38.0595 22.185 37.8645 22.44 37.5745 22.67C37.2845 22.89 36.9295 23 36.5095 23H32.5495L41.0095 1.145H46.1995L54.6595 23ZM40.6195 14.645H46.5895L44.5795 8.66C44.4495 8.28 44.2945 7.835 44.1145 7.325C43.9445 6.805 43.7745 6.245 43.6045 5.645C43.4445 6.255 43.2795 6.82 43.1095 7.34C42.9395 7.86 42.7795 8.31 42.6295 8.69L40.6195 14.645ZM61.5087 14.915V23H56.4387V1.145H63.5487C65.1287 1.145 66.4737 1.31 67.5837 1.64C68.7037 1.96 69.6137 2.41 70.3137 2.99C71.0237 3.57 71.5387 4.255 71.8587 5.045C72.1787 5.835 72.3387 6.695 72.3387 7.625C72.3387 8.335 72.2437 9.005 72.0537 9.635C71.8637 10.265 71.5787 10.85 71.1987 11.39C70.8287 11.92 70.3687 12.395 69.8187 12.815C69.2787 13.235 68.6537 13.58 67.9437 13.85C68.2837 14.02 68.5987 14.23 68.8887 14.48C69.1887 14.73 69.4487 15.035 69.6687 15.395L74.3187 23H69.7287C68.8787 23 68.2687 22.68 67.8987 22.04L64.2687 15.695C64.1087 15.415 63.9187 15.215 63.6987 15.095C63.4887 14.975 63.1887 14.915 62.7987 14.915H61.5087ZM61.5087 11.42H63.5487C64.2387 11.42 64.8237 11.335 65.3037 11.165C65.7937 10.985 66.1937 10.74 66.5037 10.43C66.8137 10.12 67.0387 9.76 67.1787 9.35C67.3187 8.93 67.3887 8.48 67.3887 8C67.3887 7.04 67.0737 6.29 66.4437 5.75C65.8237 5.21 64.8587 4.94 63.5487 4.94H61.5087V11.42ZM79.0598 1.145C79.2798 1.145 79.4648 1.155 79.6148 1.175C79.7648 1.195 79.8998 1.235 80.0198 1.295C80.1398 1.345 80.2548 1.42 80.3648 1.52C80.4748 1.62 80.5998 1.755 80.7398 1.925L91.1198 15.05C91.0798 14.63 91.0498 14.225 91.0298 13.835C91.0098 13.435 90.9998 13.06 90.9998 12.71V1.145H95.4698V23H92.8298C92.4398 23 92.1098 22.94 91.8398 22.82C91.5698 22.7 91.3098 22.48 91.0598 22.16L80.7548 9.14C80.7848 9.52 80.8098 9.895 80.8298 10.265C80.8498 10.625 80.8598 10.965 80.8598 11.285V23H76.3898V1.145H79.0598ZM104.616 23H99.5156V1.145H104.616V23ZM111.345 1.145C111.565 1.145 111.75 1.155 111.9 1.175C112.05 1.195 112.185 1.235 112.305 1.295C112.425 1.345 112.54 1.42 112.65 1.52C112.76 1.62 112.885 1.755 113.025 1.925L123.405 15.05C123.365 14.63 123.335 14.225 123.315 13.835C123.295 13.435 123.285 13.06 123.285 12.71V1.145H127.755V23H125.115C124.725 23 124.395 22.94 124.125 22.82C123.855 22.7 123.595 22.48 123.345 22.16L113.04 9.14C113.07 9.52 113.095 9.895 113.115 10.265C113.135 10.625 113.145 10.965 113.145 11.285V23H108.675V1.145H111.345ZM141.641 19.34C142.341 19.34 142.961 19.28 143.501 19.16C144.041 19.04 144.551 18.88 145.031 18.68V15.365H142.871C142.551 15.365 142.301 15.28 142.121 15.11C141.941 14.94 141.851 14.725 141.851 14.465V11.675H149.621V20.9C149.061 21.31 148.476 21.665 147.866 21.965C147.266 22.255 146.621 22.495 145.931 22.685C145.251 22.875 144.521 23.015 143.741 23.105C142.971 23.195 142.141 23.24 141.251 23.24C139.651 23.24 138.171 22.96 136.811 22.4C135.451 21.83 134.271 21.05 133.271 20.06C132.281 19.06 131.501 17.88 130.931 16.52C130.371 15.15 130.091 13.665 130.091 12.065C130.091 10.435 130.361 8.94 130.901 7.58C131.441 6.21 132.211 5.03 133.211 4.04C134.221 3.05 135.436 2.28 136.856 1.73C138.286 1.18 139.881 0.904999 141.641 0.904999C142.551 0.904999 143.406 0.979999 144.206 1.13C145.006 1.28 145.741 1.485 146.411 1.745C147.091 2.005 147.711 2.315 148.271 2.675C148.831 3.035 149.331 3.425 149.771 3.845L148.301 6.08C148.161 6.29 147.991 6.455 147.791 6.575C147.601 6.695 147.391 6.755 147.161 6.755C146.861 6.755 146.551 6.655 146.231 6.455C145.831 6.215 145.451 6.01 145.091 5.84C144.741 5.66 144.381 5.515 144.011 5.405C143.641 5.295 143.251 5.215 142.841 5.165C142.431 5.115 141.971 5.09 141.461 5.09C140.511 5.09 139.656 5.26 138.896 5.6C138.136 5.93 137.486 6.4 136.946 7.01C136.416 7.62 136.006 8.355 135.716 9.215C135.426 10.065 135.281 11.015 135.281 12.065C135.281 13.225 135.441 14.255 135.761 15.155C136.081 16.055 136.521 16.815 137.081 17.435C137.651 18.055 138.321 18.53 139.091 18.86C139.871 19.18 140.721 19.34 141.641 19.34ZM16.485 53.345C16.605 53.345 16.725 53.37 16.845 53.42C16.965 53.46 17.08 53.535 17.19 53.645L19.2 55.76C18.32 56.91 17.215 57.78 15.885 58.37C14.565 58.95 13 59.24 11.19 59.24C9.53 59.24 8.04 58.96 6.72 58.4C5.41 57.83 4.295 57.05 3.375 56.06C2.465 55.06 1.765 53.88 1.275 52.52C0.785 51.15 0.54 49.665 0.54 48.065C0.54 46.435 0.82 44.94 1.38 43.58C1.94 42.21 2.72 41.03 3.72 40.04C4.73 39.05 5.935 38.28 7.335 37.73C8.735 37.18 10.28 36.905 11.97 36.905C12.79 36.905 13.56 36.98 14.28 37.13C15.01 37.27 15.69 37.47 16.32 37.73C16.95 37.98 17.53 38.285 18.06 38.645C18.59 38.995 19.06 39.385 19.47 39.815L17.76 42.11C17.65 42.25 17.52 42.38 17.37 42.5C17.22 42.61 17.01 42.665 16.74 42.665C16.56 42.665 16.39 42.625 16.23 42.545C16.07 42.465 15.9 42.37 15.72 42.26C15.54 42.14 15.34 42.015 15.12 41.885C14.91 41.745 14.655 41.62 14.355 41.51C14.065 41.39 13.72 41.29 13.32 41.21C12.93 41.13 12.47 41.09 11.94 41.09C11.02 41.09 10.18 41.255 9.42 41.585C8.66 41.905 8.005 42.37 7.455 42.98C6.915 43.58 6.49 44.31 6.18 45.17C5.88 46.03 5.73 46.995 5.73 48.065C5.73 49.185 5.88 50.18 6.18 51.05C6.49 51.92 6.905 52.655 7.425 53.255C7.955 53.845 8.57 54.295 9.27 54.605C9.97 54.915 10.72 55.07 11.52 55.07C11.98 55.07 12.4 55.05 12.78 55.01C13.16 54.96 13.51 54.88 13.83 54.77C14.16 54.66 14.47 54.52 14.76 54.35C15.06 54.17 15.36 53.95 15.66 53.69C15.78 53.59 15.91 53.51 16.05 53.45C16.19 53.38 16.335 53.345 16.485 53.345ZM43.0868 48.065C43.0868 49.645 42.8118 51.115 42.2618 52.475C41.7218 53.835 40.9568 55.02 39.9668 56.03C38.9768 57.03 37.7818 57.815 36.3818 58.385C34.9918 58.955 33.4468 59.24 31.7468 59.24C30.0468 59.24 28.4968 58.955 27.0968 58.385C25.6968 57.815 24.4968 57.03 23.4968 56.03C22.5068 55.02 21.7368 53.835 21.1868 52.475C20.6468 51.115 20.3768 49.645 20.3768 48.065C20.3768 46.485 20.6468 45.015 21.1868 43.655C21.7368 42.295 22.5068 41.115 23.4968 40.115C24.4968 39.115 25.6968 38.33 27.0968 37.76C28.4968 37.19 30.0468 36.905 31.7468 36.905C33.4468 36.905 34.9918 37.195 36.3818 37.775C37.7818 38.345 38.9768 39.13 39.9668 40.13C40.9568 41.13 41.7218 42.31 42.2618 43.67C42.8118 45.03 43.0868 46.495 43.0868 48.065ZM37.8968 48.065C37.8968 46.985 37.7568 46.015 37.4768 45.155C37.1968 44.285 36.7918 43.55 36.2618 42.95C35.7418 42.35 35.1018 41.89 34.3418 41.57C33.5818 41.25 32.7168 41.09 31.7468 41.09C30.7668 41.09 29.8918 41.25 29.1218 41.57C28.3618 41.89 27.7168 42.35 27.1868 42.95C26.6668 43.55 26.2668 44.285 25.9868 45.155C25.7068 46.015 25.5668 46.985 25.5668 48.065C25.5668 49.155 25.7068 50.135 25.9868 51.005C26.2668 51.865 26.6668 52.595 27.1868 53.195C27.7168 53.795 28.3618 54.255 29.1218 54.575C29.8918 54.885 30.7668 55.04 31.7468 55.04C32.7168 55.04 33.5818 54.885 34.3418 54.575C35.1018 54.255 35.7418 53.795 36.2618 53.195C36.7918 52.595 37.1968 51.865 37.4768 51.005C37.7568 50.135 37.8968 49.155 37.8968 48.065ZM48.1809 37.145C48.4009 37.145 48.5859 37.155 48.7359 37.175C48.8859 37.195 49.0209 37.235 49.1409 37.295C49.2609 37.345 49.3759 37.42 49.4859 37.52C49.5959 37.62 49.7209 37.755 49.8609 37.925L60.2409 51.05C60.2009 50.63 60.1709 50.225 60.1509 49.835C60.1309 49.435 60.1209 49.06 60.1209 48.71V37.145H64.5909V59H61.9509C61.5609 59 61.2309 58.94 60.9609 58.82C60.6909 58.7 60.4309 58.48 60.1809 58.16L49.8759 45.14C49.9059 45.52 49.9309 45.895 49.9509 46.265C49.9709 46.625 49.9809 46.965 49.9809 47.285V59H45.5109V37.145H48.1809ZM70.8567 37.145C71.0767 37.145 71.2617 37.155 71.4117 37.175C71.5617 37.195 71.6967 37.235 71.8167 37.295C71.9367 37.345 72.0517 37.42 72.1617 37.52C72.2717 37.62 72.3967 37.755 72.5367 37.925L82.9167 51.05C82.8767 50.63 82.8467 50.225 82.8267 49.835C82.8067 49.435 82.7967 49.06 82.7967 48.71V37.145H87.2667V59H84.6267C84.2367 59 83.9067 58.94 83.6367 58.82C83.3667 58.7 83.1067 58.48 82.8567 58.16L72.5517 45.14C72.5817 45.52 72.6067 45.895 72.6267 46.265C72.6467 46.625 72.6567 46.965 72.6567 47.285V59H68.1867V37.145H70.8567ZM104.933 37.145V41.045H95.9625V46.145H102.833V49.895H95.9625V55.1H104.933V59H90.8625V37.145H104.933ZM122.51 53.345C122.63 53.345 122.75 53.37 122.87 53.42C122.99 53.46 123.105 53.535 123.215 53.645L125.225 55.76C124.345 56.91 123.24 57.78 121.91 58.37C120.59 58.95 119.025 59.24 117.215 59.24C115.555 59.24 114.065 58.96 112.745 58.4C111.435 57.83 110.32 57.05 109.4 56.06C108.49 55.06 107.79 53.88 107.3 52.52C106.81 51.15 106.565 49.665 106.565 48.065C106.565 46.435 106.845 44.94 107.405 43.58C107.965 42.21 108.745 41.03 109.745 40.04C110.755 39.05 111.96 38.28 113.36 37.73C114.76 37.18 116.305 36.905 117.995 36.905C118.815 36.905 119.585 36.98 120.305 37.13C121.035 37.27 121.715 37.47 122.345 37.73C122.975 37.98 123.555 38.285 124.085 38.645C124.615 38.995 125.085 39.385 125.495 39.815L123.785 42.11C123.675 42.25 123.545 42.38 123.395 42.5C123.245 42.61 123.035 42.665 122.765 42.665C122.585 42.665 122.415 42.625 122.255 42.545C122.095 42.465 121.925 42.37 121.745 42.26C121.565 42.14 121.365 42.015 121.145 41.885C120.935 41.745 120.68 41.62 120.38 41.51C120.09 41.39 119.745 41.29 119.345 41.21C118.955 41.13 118.495 41.09 117.965 41.09C117.045 41.09 116.205 41.255 115.445 41.585C114.685 41.905 114.03 42.37 113.48 42.98C112.94 43.58 112.515 44.31 112.205 45.17C111.905 46.03 111.755 46.995 111.755 48.065C111.755 49.185 111.905 50.18 112.205 51.05C112.515 51.92 112.93 52.655 113.45 53.255C113.98 53.845 114.595 54.295 115.295 54.605C115.995 54.915 116.745 55.07 117.545 55.07C118.005 55.07 118.425 55.05 118.805 55.01C119.185 54.96 119.535 54.88 119.855 54.77C120.185 54.66 120.495 54.52 120.785 54.35C121.085 54.17 121.385 53.95 121.685 53.69C121.805 53.59 121.935 53.51 122.075 53.45C122.215 53.38 122.36 53.345 122.51 53.345ZM143.412 37.145V41.165H137.262V59H132.192V41.165H126.042V37.145H143.412ZM151.051 59H145.951V37.145H151.051V59ZM176.681 48.065C176.681 49.645 176.406 51.115 175.856 52.475C175.316 53.835 174.551 55.02 173.561 56.03C172.571 57.03 171.376 57.815 169.976 58.385C168.586 58.955 167.041 59.24 165.341 59.24C163.641 59.24 162.091 58.955 160.691 58.385C159.291 57.815 158.091 57.03 157.091 56.03C156.101 55.02 155.331 53.835 154.781 52.475C154.241 51.115 153.971 49.645 153.971 48.065C153.971 46.485 154.241 45.015 154.781 43.655C155.331 42.295 156.101 41.115 157.091 40.115C158.091 39.115 159.291 38.33 160.691 37.76C162.091 37.19 163.641 36.905 165.341 36.905C167.041 36.905 168.586 37.195 169.976 37.775C171.376 38.345 172.571 39.13 173.561 40.13C174.551 41.13 175.316 42.31 175.856 43.67C176.406 45.03 176.681 46.495 176.681 48.065ZM171.491 48.065C171.491 46.985 171.351 46.015 171.071 45.155C170.791 44.285 170.386 43.55 169.856 42.95C169.336 42.35 168.696 41.89 167.936 41.57C167.176 41.25 166.311 41.09 165.341 41.09C164.361 41.09 163.486 41.25 162.716 41.57C161.956 41.89 161.311 42.35 160.781 42.95C160.261 43.55 159.861 44.285 159.581 45.155C159.301 46.015 159.161 46.985 159.161 48.065C159.161 49.155 159.301 50.135 159.581 51.005C159.861 51.865 160.261 52.595 160.781 53.195C161.311 53.795 161.956 54.255 162.716 54.575C163.486 54.885 164.361 55.04 165.341 55.04C166.311 55.04 167.176 54.885 167.936 54.575C168.696 54.255 169.336 53.795 169.856 53.195C170.386 52.595 170.791 51.865 171.071 51.005C171.351 50.135 171.491 49.155 171.491 48.065ZM181.775 37.145C181.995 37.145 182.18 37.155 182.33 37.175C182.48 37.195 182.615 37.235 182.735 37.295C182.855 37.345 182.97 37.42 183.08 37.52C183.19 37.62 183.315 37.755 183.455 37.925L193.835 51.05C193.795 50.63 193.765 50.225 193.745 49.835C193.725 49.435 193.715 49.06 193.715 48.71V37.145H198.185V59H195.545C195.155 59 194.825 58.94 194.555 58.82C194.285 58.7 194.025 58.48 193.775 58.16L183.47 45.14C183.5 45.52 183.525 45.895 183.545 46.265C183.565 46.625 183.575 46.965 183.575 47.285V59H179.105V37.145H181.775Z" fill="white"/>
</svg>
