<svg width="98" height="98" viewBox="0 0 98 98" fill="none" xmlns="http://www.w3.org/2000/svg">
<path d="M64.8148 96.5H33.1852C15.6926 96.5 1.5 82.3074 1.5 64.8148V33.1852C1.5 15.6926 15.6926 1.5 33.1852 1.5H64.8148C82.3074 1.5 96.5 15.6926 96.5 33.1852L96.5 64.8113C96.5 64.8123 96.5 64.8134 96.5 64.8145C96.457 82.3535 82.3044 96.5 64.8148 96.5Z" stroke="white" stroke-width="3"/>
<path d="M28.4322 75.8765C19.0988 75.8765 11.4507 68.2716 11.4507 58.8951C11.4507 49.5617 19.0556 41.9136 28.4322 41.9136C37.7655 41.9136 45.4137 49.5185 45.4137 58.8951C45.4137 68.2716 37.8087 75.8765 28.4322 75.8765ZM28.4322 47.7037C22.2532 47.7037 17.2408 52.716 17.2408 58.8951C17.2408 65.0741 22.2532 70.0864 28.4322 70.0864C34.6112 70.0864 39.6235 65.0741 39.6235 58.8951C39.6667 52.716 34.6112 47.7037 28.4322 47.7037Z" fill="white"/>
<path d="M69.5245 75.6605C60.1911 75.6605 52.543 68.0555 52.543 58.679C52.543 49.3457 60.1479 41.6975 69.5245 41.6975C78.8578 41.6975 86.5059 49.3024 86.5059 58.679C86.5059 68.0555 78.901 75.6605 69.5245 75.6605ZM69.5245 47.4876C63.3454 47.4876 58.3331 52.5 58.3331 58.679C58.3331 64.858 63.3454 69.8704 69.5245 69.8704C75.7035 69.8704 80.7158 64.858 80.7158 58.679C80.759 52.5432 75.7035 47.4876 69.5245 47.4876Z" fill="white"/>
<path d="M67.1481 30.8084L50.9012 47.0554C49.9074 48.0492 48.3518 48.0492 47.358 47.0554L31.1111 30.8084C30.1173 29.8146 30.1173 28.2591 31.1111 27.2652L47.358 11.0183C48.3518 10.0245 49.9074 10.0245 50.9012 11.0183L67.1481 27.2652C68.142 28.2591 68.142 29.8578 67.1481 30.8084Z" fill="white"/>
<path d="M57.2529 80.4133L50.469 87.1973C49.7344 87.9318 48.5677 87.9318 47.8764 87.1973L41.0924 80.4133C40.3579 79.6787 40.3579 78.5121 41.0924 77.8207L47.8764 71.0368C48.6109 70.3022 49.7776 70.3022 50.469 71.0368L57.2529 77.8207C57.9443 78.5553 57.9443 79.722 57.2529 80.4133Z" fill="#F1B809"/>
<path d="M28.4319 64.9877C31.8922 64.9877 34.6974 62.1825 34.6974 58.7222C34.6974 55.2619 31.8922 52.4568 28.4319 52.4568C24.9716 52.4568 22.1665 55.2619 22.1665 58.7222C22.1665 62.1825 24.9716 64.9877 28.4319 64.9877Z" fill="white"/>
<path d="M69.5247 65.1605C72.985 65.1605 75.7901 62.3554 75.7901 58.8951C75.7901 55.4348 72.985 52.6296 69.5247 52.6296C66.0644 52.6296 63.2593 55.4348 63.2593 58.8951C63.2593 62.3554 66.0644 65.1605 69.5247 65.1605Z" fill="white"/>
</svg>
