<svg width="22" height="24" viewBox="0 0 22 24" fill="none" xmlns="http://www.w3.org/2000/svg">
<path d="M21.1076 10.4761L2.65569 0.240878C2.34824 0.0631743 1.99421 -0.0193746 1.63908 0.00383397C1.28394 0.0270425 0.943914 0.154949 0.662666 0.371124C0.375436 0.595743 0.166892 0.904334 0.0666405 1.25309C-0.0336112 1.60184 -0.0204758 1.97303 0.104182 2.31397L3.18132 10.8343C3.21245 10.9192 3.26894 10.9928 3.34328 11.0451C3.41761 11.0975 3.50627 11.1261 3.59745 11.1273H11.5038C11.7312 11.1237 11.9514 11.2058 12.1201 11.3569C12.2888 11.5079 12.3934 11.7168 12.4127 11.9413C12.4202 12.0599 12.4031 12.1786 12.3624 12.2903C12.3218 12.402 12.2584 12.5043 12.1763 12.5907C12.0942 12.6772 11.9951 12.7461 11.8851 12.793C11.7751 12.84 11.6565 12.8642 11.5367 12.8639H3.59745C3.50627 12.8651 3.41761 12.8938 3.34328 12.9461C3.26894 12.9985 3.21245 13.072 3.18132 13.157L0.104182 21.6773C0.0118524 21.9398 -0.0159685 22.2203 0.0230295 22.4956C0.0620276 22.7708 0.16672 23.0329 0.328411 23.26C0.490103 23.4872 0.70413 23.6728 0.952718 23.8015C1.20131 23.9302 1.47728 23.9982 1.75773 24C2.05617 23.9987 2.34962 23.9241 2.61189 23.7829L21.1076 13.5152C21.3785 13.3626 21.6039 13.1417 21.7606 12.8747C21.9174 12.6078 22 12.3045 22 11.9956C22 11.6868 21.9174 11.3834 21.7606 11.1165C21.6039 10.8496 21.3785 10.6286 21.1076 10.4761Z" fill="#0D5DA7"/>
</svg>
